#key	value
name	YieldMore.org
byline	Walk the Sunlit Path
safeName	yieldmore
version	id: 4.1.1, date: 6 Feb 2025
siteMenuName	About Us
scaffold	sitemap
use-menu-files	true
large-menu	true
sections	light
sections_no	research, causes, solutions, us: members+initiatives+programs+blog
local-url	http://localhost/our-sites/yieldmore/
live-url	https://yieldmore.org/
footer-message	Have Enthusiasm, Touch Lives
year	2013
